{
  "page": 1,
  "total_results": 19826,
  "total_pages": 992,
  "results": [
    {
      "vote_count": 1923,
      "id": 297802,
      "video": false,
      "vote_average": 7,
      "title": "Aquaman",
      "popularity": 608.999,
      "poster_path": "",
      "original_language": "en",
      "original_title": "Aquaman",
      "genre_ids": [
        28,
        14,
        878,
        12
      ],
      "backdrop_path": "/5A2bMlLfJrAfX9bqAibOL2gCruF.jpg",
      "adult": false,
      "overview": "Arthur Curry learns that he is the heir to the underwater kingdom of Atlantis, and must step forward to lead his people and be a hero to the world.",
      "release_date": "2018-12-07"
    }
  ]
}
